R包canregtools：肿瘤登记可视化和自动化报告 – 普癌新声
…
基于canreg类数据计算标化率,同时也可以输出0-74岁累积率和35-64岁截缩率。

asr <- create_asr(data, year, sex, cancer) |> 
  add_labels()
asr

# A tibble: 56 × 13
    year sex   cancer site             icd10 no_cases    cr asr_cn2000 asr_wld85
   <int> <fct> <chr>  <fct>            <chr>    <int> <dbl>      <dbl>     <dbl>
 1  2016 男性  101    口腔和咽（除外鼻咽）…… C00-…       13  2.85       2.46      2.73
 2  2016 男性  102    鼻咽             C11          7  1.54       1.37      1.16
 3  2016 男性  103    食管             C15        157 34.5       29.0      30.6 
 4  2016 男性  104    胃               C16        135 29.6       24.0      24.9 
 5  2016 男性  105    结直肠肛门       C18-…       72 15.8       12.4      12.6 
 6  2016 男性  106    肝脏             C22        180 39.5       31.7      31.8 
 7  2016 男性  107    胆囊及其他       C23-…       16  3.51       2.74      2.7 
 8  2016 男性  108    胰腺             C25         27  5.93       4.88      5.03
 9  2016 男性  109    喉               C32         11  2.41       1.89      1.78
10  2016 男性  110    气管、支气管、肺 C33-…      320 70.2       59.2      61.0 
# ℹ 46 more rows
# ℹ 4 more variables: truncr_cn2000 <dbl>, truncr_wld85 <dbl>, cumur <dbl>,
#   prop <dbl>

同样，也可以基于fbswicd类数据计算标化率。

asr <- create_asr(fbsw, year, sex, cancer) |> 
  add_labels(lang = "en")
asr

# A tibble: 110 × 13
    year sex   cancer site             icd10 no_cases    cr asr_cn2000 asr_wld85
   <int> <fct> <chr>  <fct>            <chr>    <int> <dbl>      <dbl>     <dbl>
 1  2016 Male  1      Lip              C00          0  0          0         0   
 2  2016 Male  10     Esophagus        C15        157 34.5       29.0      30.6 
 3  2016 Male  11     Stomach          C16        135 29.6       24.0      24.9 
 4  2016 Male  12     Small Intestine  C17          3  0.66       0.51      0.55
 5  2016 Male  13     Colon            C18         33  7.24       5.79      6.1 
 6  2016 Male  14     Rectum           C19-…       38  8.34       6.43      6.36
 7  2016 Male  15     Anus             C21          1  0.22       0.18      0.16
 8  2016 Male  16     Liver            C22        180 39.5       31.7      31.8 
 9  2016 Male  17     Gallbladder and… C23-…       16  3.51       2.74      2.7 
10  2016 Male  18     Pancreas         C25         27  5.93       4.88      5.03
# ℹ 100 more rows
# ℹ 4 more variables: truncr_cn2000 <dbl>, truncr_wld85 <dbl>, cumur <dbl>,
#   prop <dbl>
…
